{
  "alpha-nvim": { "branch": "main", "commit": "bf3c8bb8c02ed3d9644cc5bbc48e2bdc39349cd7" },
  "barbecue.nvim": { "branch": "main", "commit": "3e31404f0b93a2c30d151abf0648650ac811c664" },
  "blink.cmp": { "branch": "main", "commit": "75cadbcd2657ed01326ca2b0e5e4d78a77127ca3" },
  "catppuccin": { "branch": "main", "commit": "637d99e638bc6f1efedac582f6ccab08badac0c6" },
  "dial.nvim": { "branch": "master", "commit": "ed4d6a5bbd5e479b4c4a3019d148561a2e6c1490" },
  "diffview.nvim": { "branch": "main", "commit": "4516612fe98ff56ae0415a259ff6361a89419b0a" },
  "dressing.nvim": { "branch": "master", "commit": "43b8f74e0b1e3f41e51f640f8efa3bcd401cea0d" },
  "flash.nvim": { "branch": "main", "commit": "34c7be146a91fec3555c33fe89c7d643f6ef5cf1" },
  "friendly-snippets": { "branch": "main", "commit": "de8fce94985873666bd9712ea3e49ee17aadb1ed" },
  "gitsigns.nvim": { "branch": "main", "commit": "4daf7022f1481edf1e8fb9947df13bb07c18e89a" },
  "indent-blankline.nvim": { "branch": "master", "commit": "7871a88056f7144defca9c931e311a3134c5d509" },
  "lazy.nvim": { "branch": "main", "commit": "7967abe55752aa90532e6bb4bd4663fe27a264cb" },
  "lualine.nvim": { "branch": "master", "commit": "2a5bae925481f999263d6f5ed8361baef8df4f83" },
  "mini.nvim": { "branch": "main", "commit": "64e95aa77587d04f97a5579b2106a82a08a7d968" },
  "neogit": { "branch": "master", "commit": "63124cf520ff24d09deb3b850e053908ab0fc66a" },
  "none-ls.nvim": { "branch": "main", "commit": "fb7acad9e98ad9c617775451c1aea95157e17942" },
  "nvim-autopairs": { "branch": "master", "commit": "ee297f215e95a60b01fde33275cc3c820eddeebe" },
  "nvim-colorizer.lua": { "branch": "master", "commit": "f134063618a65cad4d7415fddbd96ff7e0c5b4ae" },
  "nvim-lspconfig": { "branch": "master", "commit": "d2d153a179ed59aa7134d7ebdf4d7dcb156efa22" },
  "nvim-navic": { "branch": "master", "commit": "8649f694d3e76ee10c19255dece6411c29206a54" },
  "nvim-scrollbar": { "branch": "main", "commit": "6994eb9f73d5fdc36ee2c8717940e8c853e51a49" },
  "nvim-tree.lua": { "branch": "master", "commit": "28eac2801b201f301449e976d7a9e8cfde053ba3" },
  "nvim-treesitter": { "branch": "master", "commit": "e1e3108cd23d7f967842261bd66126b6734d8907" },
  "nvim-treesitter-endwise": { "branch": "master", "commit": "8b34305ffc28bd75a22f5a0a9928ee726a85c9a6" },
  "nvim-ts-autotag": { "branch": "main", "commit": "e239a560f338be31337e7abc3ee42515daf23f5e" },
  "nvim-web-devicons": { "branch": "master", "commit": "19d257cf889f79f4022163c3fbb5e08639077bd8" },
  "plenary.nvim": { "branch": "master", "commit": "2d9b06177a975543726ce5c73fca176cedbffe9d" },
  "ripgrep": { "branch": "master", "commit": "79cbe89deb1151e703f4d91b19af9cdcc128b765" },
  "telescope.nvim": { "branch": "master", "commit": "85922dde3767e01d42a08e750a773effbffaea3e" },
  "todo-comments.nvim": { "branch": "main", "commit": "ae0a2afb47cf7395dc400e5dc4e05274bf4fb9e0" },
  "trouble.nvim": { "branch": "main", "commit": "3dc00c0447c016cd43e03054c3d49436a1f2076d" },
  "undotree": { "branch": "master", "commit": "78b5241191852ffa9bb5da5ff2ee033160798c3b" }
}
